{
 "add_total_row": 1,
 "columns": [],
 "creation": "2022-01-05 10:55:08.565149",
 "disable_prepared_report": 0,
 "disabled": 0,
 "docstatus": 0,
 "doctype": "Report",
 "filters": [],
 "idx": 0,
 "is_standard": "Yes",
 "modified": "2022-01-05 10:56:13.944838",
 "modified_by": "Administrator",
 "module": "STAPL ERPNext",
 "name": "STAPL Sales Order Item Details",
 "owner": "Administrator",
 "prepared_report": 0,
 "ref_doctype": "Sales Order",
 "report_name": "STAPL Sales Order Item Details",
 "report_type": "Script Report",
 "roles": [
  {
   "role": "Sales User"
  },
  {
   "role": "Sales Manager"
  },
  {
   "role": "Maintenance User"
  },
  {
   "role": "Accounts User"
  },
  {
   "role": "Stock User"
  }
 ]
}